…
``` r
litters_df = janitor::clean_names(litters_df)
```

Look at the data

``` r
litters_df
```

    ## # A tibble: 51 × 8
    ##    this_is_group this_is_litter             x3     x4    x5    x6    x7    x8   
    ##    <chr>         <chr>                      <chr>  <chr> <chr> <chr> <chr> <chr>
    ##  1 <NA>          (my favorite color is red) <NA>   <NA>  <NA>  <NA>  <NA>  <NA> 
    ##  2 Group         Litter Number              GD0 w… GD18… GD o… Pups… Pups… Pups…
    ##  3 Con7          #85                        999    34.7  20    3     4     3    
    ##  4 Con7          #1/2/95/2                  999    42    19    8     0     7    
    ##  5 Con7          #5/5/3/83/3-3              26     88    19    6     0     5    
    ##  6 Con7          #5/4/2/95/2                28.5   44.1  19    5     1     4    
    ##  7 Con7          #4/2/95/3-3                <NA>   <NA>  20    6     0     6    
    ##  8 Con7          #2/2/95/3-2                <NA>   <NA>  20    6     0     4    
    ##  9 Con7          #1/5/3/83/3-3/2            <NA>   <NA>  20    9     0     9    
    ## 10 Con8          #3/83/3-3                  <NA>   <NA>  20    9     1     8    
    ## # … with 41 more rows
…
